@startuml Myrtana-UCD

!include ../Format.puml

' title Myrtana

left to right direction

actor :Gast: as Guest
actor :Interessent: as Taker
actor :Kunde: as Customer

Taker <|-- Guest
Taker <|-- Customer

actor Seller as "MA:\nVerkauf"
actor Artisan as "MA:\nHerstellung/\rReparatur"
actor Trainer as "MA:\nTrainer"
actor Clerk as "MA:\nBüro"
actor Employee as "Mitarbeiter\n(MA)"

Seller --|> Employee
Artisan --|> Employee
Trainer --|> Employee
Clerk --|> Employee

rectangle Myrtana {
  usecase Feat as "Leistung\nsuchen"
  usecase Sale as "Verkauf"
  usecase Craft as "Herstellung/\nReparatur"
  usecase Course as "Gruppenkurs"
  usecase CRM as "Kunden\nverwalten"
  usecase HR as "Mitarbeiter\nverwalten"

  Guest -- (Feat)
  Customer -- (Feat)
  Customer -- (Sale)
  Customer -- (Course)
  Customer -- (CRM)

  (Feat) -- Seller
  (Sale) -- Seller
  (CRM) -- Seller
  (Craft) -- Artisan
  (Course) -- Trainer
  (HR) -- Clerk
}

@enduml
